Division,WeightClassKg,Place,Name,Team,BodyweightKg,Best3SquatKg,Best3BenchKg,Best3DeadliftKg,TotalKg,Equipment,Event,Sex
Boys,51.71,1,Eric Hernandez,New London West Rusk,50.26,108.86,79.38,136.08,324.32,Single-ply,SBD,M
Boys,51.71,2,Tyce Johnson,Bullard,47.26,102.06,68.04,120.2,290.3,Single-ply,SBD,M
Boys,51.71,3,Landon Warren,Bullard,48.72,83.91,52.16,102.06,238.14,Single-ply,SBD,M
Boys,55.79,1,Eddie Hernandez,New London West Rusk,54.52,117.93,79.38,129.27,326.59,Single-ply,SBD,M
Boys,55.79,2,Jaidon Garrick,Lindale,52.44,113.4,63.5,124.74,301.64,Single-ply,SBD,M
Boys,59.87,1,Jaden Taylor,Lindale,59.42,154.22,77.11,158.76,390.09,Single-ply,SBD,M
Boys,59.87,2,John McWhorter,Lindale,58.51,108.86,58.97,120.2,288.03,Single-ply,SBD,M
Boys,67.13,1,Damion Brown,Bullard,66.59,183.7,111.13,158.76,453.59,Single-ply,SBD,M
Boys,67.13,2,Mauro Gallegos,Gladewater Sabine,66.32,172.37,102.06,174.63,449.06,Single-ply,SBD,M
Boys,67.13,3,Josh Williams,Troup,67.04,165.56,74.84,188.24,428.64,Single-ply,SBD,M
Boys,67.13,4,Kevin Chavez,New London West Rusk,60.06,142.88,90.72,174.63,408.23,Single-ply,SBD,M
Boys,67.13,5,Chadd Cole,Troup,63.05,136.08,97.52,151.95,385.55,Single-ply,SBD,M
Boys,67.13,6,Andrew Spellman,Lindale,62.14,147.42,77.11,158.76,383.29,Single-ply,SBD,M
Boys,67.13,7,Josh Mascola,Bullard,66.04,149.69,90.72,140.61,381.02,Single-ply,SBD,M
Boys,67.13,8,James Jacobs #3,Gladewater Sabine,63.41,136.08,83.91,158.76,378.75,Single-ply,SBD,M
Boys,67.13,9,Caleb Smith #8,Troup,62.78,138.35,88.45,142.88,369.68,Single-ply,SBD,M
Boys,67.13,10,Will Tate,Beckville,67.04,140.61,81.65,140.61,362.87,Single-ply,SBD,M
Boys,67.13,11,Marc McQuire,Beckville,66.5,136.08,70.31,136.08,342.46,Single-ply,SBD,M
Boys,67.13,12,David Lindsey,Winona,65.23,136.08,68.04,136.08,340.19,Single-ply,SBD,M
Boys,67.13,13,Michael Mize,Beckville,65.68,124.74,77.11,124.74,326.59,Single-ply,SBD,M
Boys,67.13,14,Austin Parker,Whitehouse,62.23,111.13,79.38,124.74,315.25,Single-ply,SBD,M
Boys,67.13,15,Jayce Hutchins,Whitehouse,65.59,127.01,63.5,124.74,315.25,Single-ply,SBD,M
Boys,67.13,16,Alec Morris,Gladewater Sabine,63.78,117.93,70.31,122.47,310.71,Single-ply,SBD,M
Boys,67.13,17,Ian McRight,Beckville,63.59,113.4,58.97,136.08,308.44,Single-ply,SBD,M
Boys,67.13,18,Kole Stripland,Gladewater Sabine,67.13,104.33,72.57,117.93,294.84,Single-ply,SBD,M
Boys,74.84,1,Jeremiah Johnson #7,Whitehouse,73.21,197.31,97.52,183.7,478.54,Single-ply,SBD,M
Boys,74.84,2,Corey De Armint,Lindale,74.57,183.7,95.25,179.17,458.13,Single-ply,SBD,M
Boys,74.84,3,Michael Zuniga,Troup,70.49,149.69,117.93,172.37,439.98,Single-ply,SBD,M
Boys,74.84,4,Chase Welvert,Lindale,74.3,165.56,99.79,156.49,421.84,Single-ply,SBD,M
Boys,74.84,5,Chaez Spurlock,Whitehouse,71.67,156.49,99.79,149.69,405.97,Single-ply,SBD,M
Boys,74.84,6,Landry Lassiter,Bullard,74.57,142.88,79.38,151.95,374.21,Single-ply,SBD,M
Boys,74.84,7,Sam Reeves,Whitehouse,72.12,124.74,102.06,142.88,369.68,Single-ply,SBD,M
Boys,74.84,8,Brayden Bulman,Whitehouse,73.3,133.81,83.91,151.95,369.68,Single-ply,SBD,M
Boys,74.84,9,Daniel Wood,Gladewater Sabine,72.67,136.08,79.38,136.08,351.53,Single-ply,SBD,M
Boys,74.84,10,Cade Hollingsworth,Bullard,74.12,124.74,83.91,142.88,351.53,Single-ply,SBD,M
Boys,74.84,11,Hunter McNutt,Winona,72.03,108.86,79.38,154.22,342.46,Single-ply,SBD,M
Boys,74.84,12,James Grady,Lindale,74.03,120.2,77.11,145.15,342.46,Single-ply,SBD,M
Boys,74.84,13,Kolten Primeaux,Lindale,71.67,127.01,70.31,142.88,340.19,Single-ply,SBD,M
Boys,74.84,14,Wyatt Maulden,Lindale,73.48,113.4,70.31,111.13,294.84,Single-ply,SBD,M
Boys,74.84,15,Chase McCasland,Overton,71.03,117.93,,,117.93,Single-ply,S,M
Boys,82.1,1,Ramiro Martinez,Troup,78.38,208.65,140.61,233.6,582.87,Single-ply,SBD,M
Boys,82.1,2,Reece Ricketts,Bullard,77.38,165.56,127.01,174.63,467.2,Single-ply,SBD,M
Boys,82.1,3,Tristan Clark,Troup,80.92,158.76,113.4,192.78,464.93,Single-ply,SBD,M
Boys,82.1,4,Nico Flores,Lindale,77.93,170.1,90.72,190.51,451.32,Single-ply,SBD,M
Boys,82.1,5,Tryston Holland,Beckville,81.01,165.56,106.59,174.63,446.79,Single-ply,SBD,M
Boys,82.1,6,Adam Caudle,Gladewater Sabine,81.01,170.1,92.99,172.37,435.45,Single-ply,SBD,M
Boys,82.1,7,Morey Morrison,Beckville,78.93,163.29,97.52,170.1,430.91,Single-ply,SBD,M
Boys,82.1,8,Robert Humphries,Lindale,81.19,151.95,81.65,195.04,428.64,Single-ply,SBD,M
Boys,82.1,9,Cooper Morris,Beckville,79.11,156.49,102.06,151.95,410.5,Single-ply,SBD,M
Boys,82.1,10,Chris Devries,Whitehouse,75.66,165.56,83.91,154.22,403.7,Single-ply,SBD,M
Boys,82.1,11,Ricky Higgibotham,New London West Rusk,77.93,147.42,83.91,167.83,399.16,Single-ply,SBD,M
Boys,82.1,12,Dustin Torres,Overton,77.2,158.76,79.38,158.76,396.89,Single-ply,SBD,M
Boys,82.1,13,Skylar Hutchins,New London West Rusk,75.66,147.42,97.52,147.42,392.36,Single-ply,SBD,M
Boys,82.1,14,Hudson Rogers,Overton,76.2,122.47,86.18,151.95,360.61,Single-ply,SBD,M
Boys,82.1,15,Omar Lopez,Whitehouse,80.29,133.81,88.45,129.27,351.53,Single-ply,SBD,M
Boys,89.81,1,David Bledsoe,Lindale,89.45,226.8,133.81,231.33,591.94,Single-ply,SBD,M
Boys,89.81,2,Daniel Carter,Winona,89.81,190.51,154.22,235.87,580.6,Single-ply,SBD,M
Boys,89.81,3,David Allen,Troup,89.63,190.51,115.67,197.31,503.49,Single-ply,SBD,M
Boys,89.81,4,Jose Cerda,New London West Rusk,86.09,172.37,104.33,183.7,460.4,Single-ply,SBD,M
Boys,89.81,5,Cole Hobbs,Gladewater Sabine,84.01,174.63,106.59,165.56,446.79,Single-ply,SBD,M
Boys,89.81,6,Diego Molina,New London West Rusk,84.55,163.29,102.06,176.9,442.25,Single-ply,SBD,M
Boys,89.81,7,David Simmons,Bullard,82.37,142.88,88.45,181.44,412.77,Single-ply,SBD,M
Boys,89.81,8,Cameron Bridges,Bullard,88.81,142.88,90.72,124.74,358.34,Single-ply,SBD,M
Boys,89.81,9,Chase Brewer,Overton,84.91,115.67,81.65,156.49,353.8,Single-ply,SBD,M
Boys,89.81,10,Nicholas Gregory,Lindale,88,151.95,,,151.95,Single-ply,S,M
Boys,89.81,DQ,Mack Weaver,Troup,88.63,,,,,Single-ply,SBD,M
Boys,99.79,1,Trent Allen,Troup,96.43,251.74,151.95,215.46,619.15,Single-ply,SBD,M
Boys,99.79,2,Ty McDaniel,Lindale,96.16,263.08,117.93,233.6,614.62,Single-ply,SBD,M
Boys,99.79,3,Brandon Campos,Beckville,96.89,199.58,106.59,190.51,496.68,Single-ply,SBD,M
Boys,99.79,4,Mitchell Melrose,Whitehouse,95.8,151.95,95.25,129.27,376.48,Single-ply,SBD,M
Boys,99.79,5,Parker Mizell,New London West Rusk,93.35,120.2,83.91,158.76,362.87,Single-ply,SBD,M
Boys,99.79,6,Zach Moore #6,Winona,91.17,124.74,70.31,124.74,319.78,Single-ply,SBD,M
Boys,99.79,DQ,Ty Jones,Beckville,91.81,,,,,Single-ply,SBD,M
Boys,109.77,1,Reece Clark,Troup,107.14,272.16,156.49,251.74,680.39,Single-ply,SBD,M
Boys,109.77,2,Jacob Faulk,Bullard,106.14,251.74,117.93,226.8,596.47,Single-ply,SBD,M
Boys,109.77,3,Matthew Davison,New London West Rusk,108.5,238.14,131.54,226.8,596.47,Single-ply,SBD,M
Boys,109.77,4,Santiago Castillo,Lindale,106.87,206.38,104.33,210.92,521.63,Single-ply,SBD,M
Boys,109.77,5,Ethan Collins,Beckville,109.41,151.95,79.38,185.97,417.3,Single-ply,SBD,M
Boys,124.74,1,Cason Cheney,Lindale,118.66,222.26,113.4,181.44,517.1,Single-ply,SBD,M
Boys,124.74,2,Aston King,Overton,119.93,197.31,106.59,183.7,487.61,Single-ply,SBD,M
Boys,124.74,3,Jake Corley,Lindale,111.49,188.24,104.33,181.44,474,Single-ply,SBD,M
Boys,124.74,4,Jacob Butz,Lindale,115.03,204.12,92.99,167.83,464.93,Single-ply,SBD,M
Boys,124.74,5,Jace Phillips #1,Lindale,111.04,181.44,99.79,158.76,439.98,Single-ply,SBD,M
Boys,124.74,6,Michael Steelman,Overton,117.3,188.24,83.91,158.76,430.91,Single-ply,SBD,M
Boys,124.74,7,Kobe Anderson,Whitehouse,124.74,140.61,102.06,145.15,387.82,Single-ply,SBD,M
Boys,124.74+,1,Malik Gilliam,Troup,163.84,283.5,154.22,226.8,664.51,Single-ply,SBD,M
Boys,124.74+,2,John Campbell,Bullard,140.98,272.16,102.06,199.58,573.79,Single-ply,SBD,M
Boys,124.74+,3,Matt Edwards,Lindale,125.01,208.65,127.01,208.65,544.31,Single-ply,SBD,M
Boys,124.74+,4,Devin Lewis,Bullard,148.69,181.44,111.13,181.44,474,Single-ply,SBD,M
Boys,124.74+,5,D'Marea Sueing,Whitehouse,127.1,254.01,,,254.01,Single-ply,S,M
