Place,Name,Division,Equipment,Event,BirthDate,BirthYear,Sex,BodyweightKg,WeightClassKg,Squat1Kg,Squat2Kg,Squat3Kg,Best3SquatKg,Bench1Kg,Bench2Kg,Bench3Kg,Best3BenchKg,Deadlift1Kg,Deadlift2Kg,Deadlift3Kg,Best3DeadliftKg,TotalKg
1,Angeline Berva,Seniors,Raw,SBD,,1994,F,79.4,84,110,120,130,130,75,80,-85,80,170,180,-190,180,390
1,Sami Chaabani,Sub-Juniors,Raw,SBD,,2003,M,100.6,105,160,172.5,182.5,182.5,-92.5,92.5,100,100,170,185,200,200,482.5
1,Quentin Gilbert,Seniors,Raw,SBD,,1983,M,104.4,105,-280,280,300,300,170,180,190,190,280,300,315,315,805
2,Claude Ngoma,Seniors,Raw,SBD,,1989,M,98.5,105,240,-250,-255,240,150,155,160,160,260,-270,-275,260,660
1,William Jumel,Masters 3,Raw,SBD,,1961,M,92.1,93,170,,,170,120,,,120,180,200,210,210,500
1,Adrien Lazorov,Seniors,Raw,B,,1995,M,82.8,83,,,,,162.5,-167.5,,162.5,,,,,162.5
1,Okkek Korucu,Masters 1,Raw,B,,1977,M,70.9,74,,,,,125,130,-135,130,,,,,130
